…
##  1 Property       47 Lonergan v. Scolnick, 129 Cal. App. 2d 179 (1954).         
##  2 Property       51 Normile v. Miller, 313 N.C. 98 (1985).                     
##  3 Property      227 Kirksey v. Kirksey, 8 Ala. 131 (1845)                      
##  4 Property      228 Harvey v. Dow, 962 A.2d.322 (Me. 2008).                    
##  5 Property      237 King v. Trustees of Boston Univ., 420 Mass. 52 (1995)      
##  6 Property      266 Berryman v. Kmoch, 221 Kan. 304 (1977)                     
##  7 Property      357 Beaver v. Brumlow, 148 N.M. 172 (N.M. Ct. App. 2010)       
##  8 Property      381 Buffaloe v. Hart, 114 N.C. App 52 (1994).                  
##  9 Property      572 Dodson v. Shrader, 824 S.W.2d 545 (Tenn. 1992)             
## 10 Property      579 Sparrow v. Demonico, 461 Mass. 322 (2012)                  
## 11 Property      622 Hill v. Jones, 151 Ariz. 81 (1986)                         
## 12 Property      650 Higgins v. Super. Ct. of Los Angeles County, 140 Cal. App.…
## 13 Property      720 Lenawee County Board of Health v. Messerly, 417 Mich. 17 (…

## # A tibble: 73 x 30
##     page cite  notes  year transaction transaction2 p1    ptype1 pspouse1 p2   
##    <dbl> <chr> <chr> <dbl> <chr>       <lgl>        <chr> <chr>  <chr>    <chr>
##  1    18 Alle… <NA>   1923 Business    NA           Allen Man    <NA>     <NA> 
##  2    37 Ray … <NA>   1952 Consumer    NA           Calv… Man    Y        Kath…
##  3    47 Lone… <NA>   1954 Property    NA           Lone… Man    <NA>     <NA> 
##  4    51 Norm… <NA>   1985 Property    NA           Mich… Man    <NA>     Wawi…
##  5    61 Cook… <NA>   1998 Employee    NA           Mary… Woman  <NA>     <NA> 
##  6    78 Walk… <NA>   1965 Consumer    NA           Walk… Unkno… <NA>     <NA> 
##  7    87 Quak… <NA>   1990 Business    NA           Quak… Busin… <NA>     <NA> 
##  8   102 Hame… <NA>   1891 Family      NA           Hamer Woman  <NA>     Will…
##  9   115 Doug… <NA>   1919 Family      NA           Doug… Man    F        <NA> 
## 10   120 Plow… <NA>   1937 Employee    NA           Plow… Man    <NA>     16 o…
## # … with 63 more rows, and 20 more variables: ptype2 <chr>, pspouse2 <chr>,
## #   p3 <chr>, ptype3 <chr>, pspouse3 <chr>, p4 <chr>, ptype4 <chr>,
## #   pspouse4 <chr>, d1 <chr>, dtype1 <chr>, dspouse1 <chr>, d2 <chr>,
## #   dtype2 <chr>, dspouse2 <chr>, d3 <chr>, dtype3 <chr>, dspouse3 <chr>,
## #   d4 <chr>, dtype4 <chr>, dspouse4 <lgl>
…
## # A tibble: 6 x 9
##    page  year transaction party1     typenomf typemf spouse side  cite          
##   <dbl> <dbl> <chr>       <chr>      <chr>    <chr>  <chr>  <chr> <chr>         
## 1   102  1891 Family      Hamer      Woman    Woman  N      π     Hamer v. Sidw…
## 2   129  2014 Family      George J.… Man      Man    N      π     Dohrmann v. S…
## 3   328  1825 Family      Mills      Unknown  Unkno… N      π     Mills v. Wyma…
## 4   333  1935 Family      Webb       Man      Man    N      π     Webb v. McGow…
## 5   129  2014 Family      Thomas E.… Man      Man    N      ∆     Dohrmann v. S…
## 6   333  1935 Family      J. Greele… Man      Man    N      ∆     Webb v. McGow…

## [1] "page"        "year"        "transaction" "party1"      "typenomf"   
## [6] "typemf"      "spouse"      "side"        "cite"

## # A tibble: 330 x 9
##     page  year transaction party1   typenomf typemf spouse side  cite           
##    <dbl> <dbl> <chr>       <chr>    <chr>    <chr>  <chr>  <chr> <chr>          
##  1    18  1923 Business    Allen    Man      Man    N      π     Allen v. Bissi…
##  2    21  2017 Consumer    Spencer… Man      Man    N      π     Meyer v. Uber …
##  3    37  1952 Consumer    Calvin … Man      Man    Y      π     Ray v. William…
##  4    37  1952 Consumer    Katheri… Woman    Woman  Y      π     Ray v. William…
##  5    47  1954 Property    Lonergan Man      Man    N      π     Lonergan v. Sc…
##  6    51  1985 Property    Michael… Man      Man    N      π     Normile v. Mil…
##  7    51  1985 Property    Wawie K… Unknown  Unkno… N      π     Normile v. Mil…
##  8    51  1985 Property    Segal    Unknown  Unkno… N      π     Normile v. Mil…
##  9    51  1985 Property    Gladys … Woman    Woman  N      π     Normile v. Mil…
## 10    61  1998 Employee    Mary El… Woman    Woman  N      π     Cook v. Colwel…
## # … with 320 more rows
…
